{
    "lun_rate_strip": {
        "color": 424, 
        "status": "alive", 
        "pos": [
            0.6597077244258872, 
            0.987473903966597, 
            0.33453237410071945, 
            0.6438848920863309
        ]
    }, 
    "laser_power": {
        "color": 422, 
        "status": "dead", 
        "pos": [
            0.3539232053422371, 
            0.674457429048414, 
            1e-06, 
            0.3144578313253012
        ]
    }, 
    "stare_rate": {
        "color": 17, 
        "status": "dead", 
        "pos": [
            0.6769616026711186, 
            0.9979959919839678, 
            1e-06, 
            0.31566265060240967
        ]
    }, 
    "raw_lun_hist": {
        "color": 424, 
        "status": "alive", 
        "pos": [
            0.36430062630480164, 
            0.7025052192066805, 
            0.6510791366906474, 
            0.9805755395683453
        ]
    }, 
    "raw_fid_hist": {
        "color": 393, 
        "status": "alive", 
        "pos": [
            0.01, 
            0.3475991649269311, 
            0.660431654676259, 
            0.99
        ]
    }, 
    "lun_strip": {
        "color": 424, 
        "status": "alive", 
        "pos": [
            0.025052192066805846, 
            0.35281837160751567, 
            0.35251798561151076, 
            0.651798561151079
        ]
    }, 
    "lun_hist": {
        "color": 424, 
        "status": "alive", 
        "pos": [
            0.35386221294363257, 
            0.6920668058455114, 
            0.01, 
            0.3338129496402878
        ]
    }, 
    "lun_hitgrid": {
        "color": 625, 
        "status": "alive", 
        "pos": [
            0.4029227557411273, 
            0.6430062630480167, 
            0.3733812949640287, 
            0.6309352517985611
        ]
    }, 
    "fid_hist": {
        "color": 393, 
        "status": "alive", 
        "pos": [
            0.01, 
            0.34551148225469724, 
            0.01, 
            0.3338129496402878
        ]
    }
}